{
  "id": "/springcloudexperiment/discovery-server",
  "instances": 1,
  "cpus": 1,
  "mem": 512,
  "container": {
    "type": "DOCKER",
    "docker": {
      "image": "bluedevel/discovery-server",
      "forcePullImage": true
    },
    "portMappings": [
      {
        "containerPort": 0,
        "hostPort": 0,
        "labels": {
          "VIP_0": "/discovery-server:8761"
        },
        "protocol": "tcp"
      }
    ]
  },
  "networks": [
    {
      "name": "dcos",
      "mpde": "container"
    }
  ]
}