{
  "id": "/porttester",
  "instances": 1,
  "cpus": 0.1,
  "mem": 128,
  "container": {
    "type": "DOCKER",
    "network": "HOST",
    "docker": {
      "image": "bluedevel/porttester",
      "forcePullImage": true
    }
  }
}